([('renamer',
   '/home/cameron/Documents/Projects/renamer-python/build/renamer/renamer',
   'EXECUTABLE'),
  ('libexpat.so.1', '/lib/x86_64-linux-gnu/libexpat.so.1', 'BINARY'),
  ('libz.so.1', '/lib/x86_64-linux-gnu/libz.so.1', 'BINARY'),
  ('resource',
   '/usr/lib/python3.5/lib-dynload/resource.cpython-35m-x86_64-linux-gnu.so',
   'EXTENSION'),
  ('_ssl',
   '/usr/lib/python3.5/lib-dynload/_ssl.cpython-35m-x86_64-linux-gnu.so',
   'EXTENSION'),
  ('_codecs_hk',
   '/usr/lib/python3.5/lib-dynload/_codecs_hk.cpython-35m-x86_64-linux-gnu.so',
   'EXTENSION'),
  ('_codecs_kr',
   '/usr/lib/python3.5/lib-dynload/_codecs_kr.cpython-35m-x86_64-linux-gnu.so',
   'EXTENSION'),
  ('_codecs_tw',
   '/usr/lib/python3.5/lib-dynload/_codecs_tw.cpython-35m-x86_64-linux-gnu.so',
   'EXTENSION'),
  ('_codecs_iso2022',
   '/usr/lib/python3.5/lib-dynload/_codecs_iso2022.cpython-35m-x86_64-linux-gnu.so',
   'EXTENSION'),
  ('_codecs_jp',
   '/usr/lib/python3.5/lib-dynload/_codecs_jp.cpython-35m-x86_64-linux-gnu.so',
   'EXTENSION'),
  ('_codecs_cn',
   '/usr/lib/python3.5/lib-dynload/_codecs_cn.cpython-35m-x86_64-linux-gnu.so',
   'EXTENSION'),
  ('_multibytecodec',
   '/usr/lib/python3.5/lib-dynload/_multibytecodec.cpython-35m-x86_64-linux-gnu.so',
   'EXTENSION'),
  ('_opcode',
   '/usr/lib/python3.5/lib-dynload/_opcode.cpython-35m-x86_64-linux-gnu.so',
   'EXTENSION'),
  ('readline',
   '/usr/lib/python3.5/lib-dynload/readline.cpython-35m-x86_64-linux-gnu.so',
   'EXTENSION'),
  ('_ctypes',
   '/usr/lib/python3.5/lib-dynload/_ctypes.cpython-35m-x86_64-linux-gnu.so',
   'EXTENSION'),
  ('termios',
   '/usr/lib/python3.5/lib-dynload/termios.cpython-35m-x86_64-linux-gnu.so',
   'EXTENSION'),
  ('_hashlib',
   '/usr/lib/python3.5/lib-dynload/_hashlib.cpython-35m-x86_64-linux-gnu.so',
   'EXTENSION'),
  ('_bz2',
   '/usr/lib/python3.5/lib-dynload/_bz2.cpython-35m-x86_64-linux-gnu.so',
   'EXTENSION'),
  ('_lzma',
   '/usr/lib/python3.5/lib-dynload/_lzma.cpython-35m-x86_64-linux-gnu.so',
   'EXTENSION'),
  ('libcrypto.so.1.0.0', '/lib/x86_64-linux-gnu/libcrypto.so.1.0.0', 'BINARY'),
  ('libssl.so.1.0.0', '/lib/x86_64-linux-gnu/libssl.so.1.0.0', 'BINARY'),
  ('libreadline.so.6', '/lib/x86_64-linux-gnu/libreadline.so.6', 'BINARY'),
  ('libtinfo.so.5', '/lib/x86_64-linux-gnu/libtinfo.so.5', 'BINARY'),
  ('libbz2.so.1.0', '/lib/x86_64-linux-gnu/libbz2.so.1.0', 'BINARY'),
  ('liblzma.so.5', '/lib/x86_64-linux-gnu/liblzma.so.5', 'BINARY'),
  ('libpython3.5m.so.1.0',
   '/usr/lib/x86_64-linux-gnu/libpython3.5m.so.1.0',
   'BINARY'),
  ('base_library.zip',
   '/home/cameron/Documents/Projects/renamer-python/build/renamer/base_library.zip',
   'DATA')],)
